STT3850 Comprehensive Final Exam
…
A Look at the Data

# A tibble: 40,518 x 4
    year tag           number year_total
   <dbl> <chr>          <dbl>      <dbl>
 1  2008 .htaccess         54      58390
 2  2008 .net            5910      58390
 3  2008 .net-2.0         289      58390
 4  2008 .net-3.5         319      58390
 5  2008 .net-4.0           6      58390
 6  2008 .net-assembly      3      58390
 7  2008 .net-core          1      58390
 8  2008 2d                42      58390
 9  2008 32-bit            19      58390
10  2008 32bit-64bit        4      58390
#  with 40,508 more rows
…
