TBA
…
Most Common Question Tags

Tags for R, dplyr, and ggplot2

Popularity of Programming Languages

The Dataset

How can we tell what programming languages are currently most widely used, as well as which languages seem to be growing in popularity or fading over time? One source of data is the programming question-and-answer site Stack Overflow. Each question has a tag or tags that describe its topic(s) and are searchable by users. For example, there is a tag for languages like R or Python, as well as for packages like ggplot2 or pandas. By analyzing data on the number of questions tagged for a language, we can get some sense of how many people might be using it. Individuals can access data about Stack Overflow from the Stack Exchange Data Explorer. The rows of the dataset contain frequency counts for individual question tags by year across several years (20082018), as well as the total count of all tags for the given year.

A Look at the Data

# A tibble: 40,518 x 4
    year tag           number year_total
   <dbl> <chr>          <dbl>      <dbl>
 1  2008 .htaccess         54      58390
 2  2008 .net            5910      58390
 3  2008 .net-2.0         289      58390
 4  2008 .net-3.5         319      58390
 5  2008 .net-4.0           6      58390
 6  2008 .net-assembly      3      58390
 7  2008 .net-core          1      58390
 8  2008 2d                42      58390
 9  2008 32-bit            19      58390
10  2008 32bit-64bit        4      58390
#  with 40,508 more rows
…
